-16 -48 -16 -56 -48 -24 -80 648
-40 -48 -72 -8 792
200 -72 704
-24 -8 96 -56 -72 696
-80 -8 16 -24 -64 760
992
-40 -64 56 -32 768
992
-72 -16 -40 840
-80 64 -56 -48 112 -32 88 -72 376
72 -32 -8 856
992
-56 928
-80 -40 -40 808
992
-80 -32 -8 848
992
-72 912
72 -64 -8 824
992
-56 -40 -56 816
992
-24 8 -72 40 -56 752
-40 72 -72 784
992
