48 -56 -40 8 -56 -24 712
8 -16 -24 -64 -72 -48 -72 -24 600
992
-48 936
992
-16 -72 888
-48 -72 -8 840
-32 -16 928
48 -64 -40 816
-40 944
24 -24 24 -56 -56 768
992
-24 960
48 -64 -72 784
32 -8 128 -64 728
-56 -16 -24 872
8 -8 -32 920
992
-24 -24 -8 24 -16 -16 -80 744
-80 -64 32 -16 -8 752
-32 88 -56 -72 712
992
56 -56 864
