-40 -80 -64 -8 8 -32 -40 -80 -80 488
-8 -8 24 -72 -8 40 -32 -24 712
-32 -40 -48 -40 -32 -16 -32 696
-32 -80 -8 24 -32 -56 -32 -72 -48 536
-8 -32 -8 -48 864
-24 -16 -16 -24 -16 -32 816
-32 -32 -16 -16 16 -64 -24 -48 -64 608
-32 16 -24 -24 -8 -8 -40 -80 -24 -80 -72 -56 432
-32 -24 -8 -56 -64 -8 -32 -32 -40 -48 568
-16 8 -32 -16 -40 -56 -80 -32 -56 584
-24 -8 -24 -32 -16 -80 760
8 -8 -8 -16 -40 -80 784
-24 -40 -24 -64 -16 -24 752
-8 -72 -8 -24 -64 -72 696
8 -72 -8 -24 -64 -48 -48 664
-32 -16 48 -16 -24 -80 -80 -56 576
-24 -24 24 -80 -48 -8 -56 -72 -56 528
-24 -24 -48 -24 -8 -40 -32 -32 -8 -16 656
-16 -32 -32 -24 -8 -72 -64 -16 664
-24 -40 -16 -8 -16 -24 -24 -24 -32 712
-24 -48 -64 -16 -80 -16 696
8 -40 -8 -16 -16 -72 784
-40 -56 -8 -24 -56 -72 -16 -32 -24 -32 -24 520
-8 -8 8 -80 -16 832
