30

6
10
4
2
5
-5
-3
2
1
9
-2
-4
-4
-3

10
6
2
6
4
3
5

9
9
5
4
5
10
5
-6
-6
-1
-1
-1
-2
-1

8
3
-1
10
-2
-1

8
-1
1
6
3
-3
-1
-1

9
2
1
-1
-1
-1
10
-1

3
4
9
6
-1
-3
-1
5
10
8
5
-1
-2
-3

5
-1
4
5
8
-3
-2
-1

2
1
4
3
2
6
2
7
-1
-4
-2
-2
-3
-1
-2
-1

4
6
9
1
-2
9
5
1
8
-3
-2
-5

6
-1
9
9
4
-3

9
1
3
9
5
-1
-3
-3
-2
9
9
5
10
-3

9
3
6
2
4
2
2
-7

2
-1
10

3
2
-1
6
4

4
6
10
3
-3

9
3
2
2
-4
-2
-1
-1
7

3
7
5
8
6
-4
-3
-2
-2
9
7
3
-2
-2
-2
-1

7
2
3
1
2
1
-4
-3
-1

2
4
-2
-1
2
10

8
5
6
-3
-1
-1
8
8
10
3
5
-2
-1

1
2
4
-1
-2
1
10
5
-3

3
10
7
5
5
-3
-1
3
5
5
7
-1
-1

3
5
8
-1
6
2
1
4
9
-2
-1
-1
-1
-1

8
9
7
9
-1
-3
-2
6
6
1
6
2
-1
-3
-3

2
4
6
6
5
-3
-4
-2
-2

7
1
4
2
5
-2
10
10
7
9
-2

7
-1
6
2
2
-3
-2
-1

5
-1
1

4
9
6
8
-1
-3
-2
-1
4
2
-1
-1
