22

8
3
2
8
-2
-3
-2
-1
9
10
-1

10
-1
9
8
5
7
8

5
6
10
4
-4
-2

5
-1
9
1
3
5
-2
-3
-2

3
-1
9
2
1
4
-4
-1
-2

2
6
-2
-1
8
8
8
1
7
-5
-3
-3
-2
-1

8
-1
2
4
3

7
2
6
8
3
-5
-1
5
9
4
10
-5
-5

1
-1
5
10
7
-2

10
10
5
-2
-1

1
6
-1
1
7
5
5
10
-1
-2
-2
-3

10
2
-1
-1
9
5
2
-1

6
6
6
8
-2
-2
-2
-1
7
10
-1

6
4
8
7
-4
10
2
4
2
-2
-4
-3
-4
-3

2
2
-1
2
-2
-1

9
1
1
8
1
4
1
-5
-4
-3
-2
-2
-2

2
7
4
7
-1
-3
3
7
10

3
4
-1
5
3
-3

3
4
-2
-1
9
-1

7
3
4
2
9
-4
-2
-3
-2
1
4
10
-3
-3
-1
-1

5
6
-1
10
10
9
2
1
-5

2
7
9
8
3
2
7
10
-2
-4
-4
-4
-4
-3
-1
-1
