-40 56 -24 -48 -32 752
40 -40 -40 -48 -32 -48 -64 -40 -56 512
80 -48 -64 -32 -56 -40 -72 -56 -72 -48 -40 296
64 -56 856
992
120 -48 808
40 -64 96 -24 -56 -32 632
144 -48 -32 -40 696
136 -32 56 -40 -64 624
64 -48 32 -64 56 -40 640
120 -72 -24 64 -48 624
152 -56 48 -80 -40 576
96 -32 848
48 -64 864
-80 8 -40 48 -64 -32 -56 -72 -64 -72 -40 -64 -48 -32 160
64 -56 856
992
120 -48 808
40 -64 96 -24 -56 -32 632
144 -48 -32 -40 696
