40 -56 64 -24 16 -32 8 -64 -16 -64 -40 480
208 -24 -40 -64 -32 584
136 -40 -24 8 -64 -24 648
40 -24 176 -72 56 -64 -72 -24 -56 336
-16 -72 -40 48 -48 -32 688
88 -24 112 -48 -56 -64 -40 504
8 -16 -8 -16 -48 -40 808
-32 -32 -64 -72 -16 -48 -48 -72 544
-16 136 -8 -8 -16 768
32 -24 -16 32 -24 -16 -56 736
-32 -64 -16 -56 -40 -64 672
112 -24 8 -64 -8 -8 -24 688
176 -16 -24 -8 -32 696
280 -64 -72 -48 -40 448
-32 -80 -16 -32 -56 8 -16 -16 672
104 -24 -16 -16 -24 768
56 -8 -32 48 -80 -16 -24 -16 648
64 -72 104 -16 -8 -64 -32 576
16 -32 -8 -16 -72 -8 792
32 -16 32 -8 -16 8 -48 -24 744
