25

2
5
-1
5
-1
9
-1
10
-1
7

3
-1
1
1
-1
6
-1
4
6
2

3
1
-1
4
-1
4
9
8
-1

8
-1
3
4
8
-1
4
8
6

7
-1
6
5
1
-1
3
-1

1
6
3
8
1
-1
8

8
-1
5
1
1
9
6

7
1
-1
3
10
-1
10
4
3

9
-1
9
-1
9
-1
5
10
9

9
9
-1
6
4
-1
7
2
-1
2

5
1
-1
6
-1
9
10
1

9
-1
2
9
-1
7
3
9
-1

9
3
1
-1
8
4
-1
3
2
-1

8
-1
3
-1
5
-1
8
-1
1
10

6
-1
10
8
-1
3
6
1

6
6
-1
7
6
9
1
5
-1

8
-1
1
-1
1
-1
4

2
6
4
5
9
-1
6
9
-1

1
-1
9
-1
3
8
6
9
8
7

2
-1
6
8
5
-1
4

5
4
1
-1
4
-1
6

8
-1
7
-1
8
1
-1

5
-1
3
-1
7
1
-1
9
9
8

3
-1
2
7
8
-1
4
-1
1

2
-1
6
-1
5
-1
10
-1
5
2
